{
  "data" : {
    "UiEvents" : "{\"hasSeenDialog\":{\"LAUNCHER_RELEASENOTE_61rnrT5t7g0hS7YlV6O9CD\":true},\"hidePlayerSafetyDisclaimer\":{\"1.12.2-OptiFine_HD_U_F5_OptiFine\":true}}",
    "UiSettings" : "{\"dungeonsDLCFilter\":{\"Owned\":true,\"Bundle\":true,\"DLC\":true},\"javaConfigurationFilter\":{\"release\":true,\"historical\":true,\"snapshot\":true,\"sortBy\":\"last-played\",\"modded\":true},\"lastVisitedGame\":\"java\"}"
  },
  "formatVersion" : 1
}
