{
  "userSet": {
    "selected": {
      "username": "IndianIM",
      "type": "plain"
    },
    "list": [
      {
        "username": "IndianIM",
        "uuid": "e5997523c8a34e6fa66c6b7a9b89a257",
        "type": "plain"
      }
    ]
  }
}