{
  "minecraft:recipes/misc/book": {
    "criteria": {
      "has_paper": "2020-03-20 15:35:53 -0400"
    },
    "done": true
  },
  "minecraft:recipes/transportation/rail": {
    "criteria": {
      "has_minecart": "2020-03-22 15:13:32 -0400"
    },
    "done": true
  },
  "minecraft:recipes/transportation/dark_oak_boat": {
    "criteria": {
      "entered_water": "2020-03-22 15:58:28 -0400"
    },
    "done": true
  },
  "minecraft:recipes/transportation/hopper_minecart": {
    "criteria": {
      "has_minecart": "2020-03-22 15:13:32 -0400"
    },
    "done": true
  },
  "minecraft:recipes/decorations/chest": {
    "criteria": {
      "has_lots_of_items": "2020-03-22 16:00:18 -0400"
    },
    "done": true
  },
  "minecraft:recipes/transportation/birch_boat": {
    "criteria": {
      "entered_water": "2020-03-22 15:58:28 -0400"
    },
    "done": true
  },
  "minecraft:recipes/transportation/acacia_boat": {
    "criteria": {
      "entered_water": "2020-03-22 15:58:28 -0400"
    },
    "done": true
  },
  "minecraft:recipes/redstone/stone_button": {
    "criteria": {
      "has_stone": "2020-03-22 16:00:18 -0400"
    },
    "done": true
  },
  "minecraft:recipes/transportation/tnt_minecart": {
    "criteria": {
      "has_minecart": "2020-03-22 15:13:32 -0400"
    },
    "done": true
  },
  "minecraft:recipes/building_blocks/stonebrick": {
    "criteria": {
      "has_stone": "2020-03-22 16:00:18 -0400"
    },
    "done": true
  },
  "minecraft:recipes/transportation/furnace_minecart": {
    "criteria": {
      "has_minecart": "2020-03-22 15:13:32 -0400"
    },
    "done": true
  },
  "minecraft:recipes/building_blocks/stone_slab": {
    "criteria": {
      "has_stone": "2020-03-22 16:00:18 -0400"
    },
    "done": true
  },
  "minecraft:recipes/redstone/stone_pressure_plate": {
    "criteria": {
      "has_stone": "2020-03-22 16:00:18 -0400"
    },
    "done": true
  },
  "minecraft:recipes/transportation/boat": {
    "criteria": {
      "entered_water": "2020-03-22 15:58:28 -0400"
    },
    "done": true
  },
  "minecraft:recipes/transportation/jungle_boat": {
    "criteria": {
      "entered_water": "2020-03-22 15:58:28 -0400"
    },
    "done": true
  },
  "minecraft:recipes/transportation/spruce_boat": {
    "criteria": {
      "entered_water": "2020-03-22 15:58:28 -0400"
    },
    "done": true
  },
  "minecraft:adventure/adventuring_time": {
    "criteria": {
      "forest": "2020-03-20 15:35:56 -0400",
      "swampland": "2020-03-22 15:42:00 -0400",
      "birch_forest": "2020-03-22 15:36:39 -0400",
      "deep_ocean": "2020-03-22 15:24:42 -0400",
      "beaches": "2020-03-22 15:24:33 -0400",
      "extreme_hills_with_trees": "2020-03-22 15:44:30 -0400",
      "forest_hills": "2020-03-22 15:25:12 -0400",
      "savanna": "2020-03-22 15:46:55 -0400",
      "plains": "2020-03-22 15:32:02 -0400",
      "savanna_rock": "2020-03-22 15:47:20 -0400",
      "taiga": "2020-03-20 15:37:10 -0400",
      "taiga_hills": "2020-03-20 15:40:08 -0400",
      "taiga_cold": "2020-03-22 15:51:14 -0400",
      "ocean": "2020-03-22 15:24:35 -0400",
      "extreme_hills": "2020-03-22 15:29:36 -0400",
      "roofed_forest": "2020-03-22 15:37:21 -0400",
      "cold_beach": "2020-03-22 15:51:11 -0400",
      "river": "2020-03-20 15:36:05 -0400",
      "desert": "2020-03-22 15:48:47 -0400",
      "stone_beach": "2020-03-22 15:40:43 -0400"
    },
    "done": false
  },
  "minecraft:recipes/transportation/chest_minecart": {
    "criteria": {
      "has_minecart": "2020-03-22 15:13:32 -0400"
    },
    "done": true
  }
}