{
  "minecraft:recipes/misc/book": {
    "criteria": {
      "has_paper": "2020-09-18 23:38:13 -0400"
    },
    "done": true
  },
  "minecraft:adventure/adventuring_time": {
    "criteria": {
      "ice_flats": "2020-09-19 01:41:34 -0400",
      "frozen_river": "2020-09-19 01:42:14 -0400",
      "taiga_cold_hills": "2020-09-19 01:40:44 -0400",
      "forest": "2020-09-18 23:42:56 -0400",
      "mesa_rock": "2020-09-19 01:34:56 -0400",
      "swampland": "2020-09-18 23:51:05 -0400",
      "birch_forest": "2020-09-19 01:16:17 -0400",
      "deep_ocean": "2020-09-19 00:59:22 -0400",
      "beaches": "2020-09-19 00:59:07 -0400",
      "extreme_hills_with_trees": "2020-09-19 01:17:42 -0400",
      "desert_hills": "2020-09-19 01:25:12 -0400",
      "mesa": "2020-09-19 01:34:42 -0400",
      "forest_hills": "2020-09-18 23:42:50 -0400",
      "plains": "2020-09-18 23:38:13 -0400",
      "savanna": "2020-09-19 01:02:14 -0400",
      "mesa_clear_rock": "2020-09-19 01:35:53 -0400",
      "savanna_rock": "2020-09-19 01:03:28 -0400",
      "ice_mountains": "2020-09-19 01:41:20 -0400",
      "taiga": "2020-09-19 00:56:07 -0400",
      "taiga_hills": "2020-09-19 01:17:18 -0400",
      "birch_forest_hills": "2020-09-19 01:16:32 -0400",
      "taiga_cold": "2020-09-19 01:40:40 -0400",
      "ocean": "2020-09-19 00:59:11 -0400",
      "extreme_hills": "2020-09-19 00:52:44 -0400",
      "roofed_forest": "2020-09-19 00:52:54 -0400",
      "cold_beach": "2020-09-19 01:51:48 -0400",
      "river": "2020-09-19 00:55:29 -0400",
      "desert": "2020-09-19 01:02:38 -0400",
      "stone_beach": "2020-09-19 01:18:48 -0400"
    },
    "done": false
  }
}