{
  "minecraft:recipes/misc/book": {
    "criteria": {
      "has_paper": "2020-09-15 01:37:56 -0400"
    },
    "done": true
  },
  "minecraft:story/lava_bucket": {
    "criteria": {
      "lava_bucket": "2020-09-15 01:37:56 -0400"
    },
    "done": true
  },
  "minecraft:adventure/adventuring_time": {
    "criteria": {
      "ice_flats": "2020-09-15 01:50:01 -0400",
      "frozen_river": "2020-09-15 01:52:45 -0400",
      "taiga_cold_hills": "2020-09-15 01:54:03 -0400",
      "forest": "2020-09-15 01:42:50 -0400",
      "birch_forest": "2020-09-15 01:40:25 -0400",
      "swampland": "2020-09-15 01:42:56 -0400",
      "deep_ocean": "2020-09-15 01:45:31 -0400",
      "beaches": "2020-09-15 01:46:06 -0400",
      "forest_hills": "2020-09-15 01:41:46 -0400",
      "plains": "2020-09-15 01:38:30 -0400",
      "ice_mountains": "2020-09-15 01:50:50 -0400",
      "taiga": "2020-09-15 01:46:08 -0400",
      "taiga_hills": "2020-09-15 01:46:53 -0400",
      "birch_forest_hills": "2020-09-15 02:13:13 -0400",
      "taiga_cold": "2020-09-15 01:53:53 -0400",
      "ocean": "2020-09-15 01:45:07 -0400",
      "extreme_hills": "2020-09-15 01:48:13 -0400",
      "roofed_forest": "2020-09-15 02:05:51 -0400",
      "cold_beach": "2020-09-15 01:49:56 -0400",
      "river": "2020-09-15 01:40:21 -0400",
      "desert": "2020-09-15 02:20:17 -0400",
      "stone_beach": "2020-09-15 02:07:08 -0400"
    },
    "done": false
  }
}