setblock ~ ~2 ~1 stone 
setblock ~-1 ~2 ~1 air
setblock ~-1 ~2 ~1 minecraft:wall_sign 4 replace {Text1:"{\"text\":\"===============\"}",Text2:"{\"text\":\"Awaiting Elevator\"}",Text3:"{\"text\":\"Setup...\"}",Text4:"{\"text\":\"===============\"}"} 
fill ~ ~ ~ ~ ~ ~-1 air
